<svg xmlns="http://www.w3.org/2000/svg" width="20" height="20" viewBox="0 0 20 20">
    <path fill="#FFF" fill-rule="nonzero" d="M14.943 13.562a8.373 8.373 0 0 0 1.8-5.183C16.743 3.767 12.984 0 8.36 0 3.736 0 0 3.767 0 8.379s3.759 8.379 8.36 8.379c1.845 0 3.69-.64 5.17-1.804L18.566 20 20 18.562l-5.057-5zm-6.583 1.21c-3.485 0-6.333-2.854-6.333-6.347 0-3.493 2.848-6.347 6.333-6.347 3.485 0 6.332 2.854 6.332 6.347 0 3.493-2.847 6.347-6.332 6.347z"/>
</svg>
